logging_exercise_1.py - wrapper - 35
logging_exercise_1.py - <module> - 53
logging_exercise_1.py - wrapper - 35
logging_exercise_1.py - <module> - 55
logging_exercise_1.py - wrapper - 35
logging_exercise_1.py - <module> - 57
logging_exercise_1.py - wrapper - 35
logging_exercise_1.py - <module> - 55
logging_exercise_1.py - wrapper - 35
logging_exercise_1.py - <module> - 55
logging_exercise_1.py - wrapper - 35
logging_exercise_1.py - <module> - 57
logging_exercise_1.py - wrapper - 35
logging_exercise_1.py - <module> - 57
logging_exercise_1.py - wrapper - 35
logging_exercise_1.py - <module> - 53
logging_exercise_1.py - wrapper - 35
logging_exercise_1.py - <module> - 53
logging_exercise_1.py - wrapper - 35
logging_exercise_1.py - <module> - 55
